<?xml version="1.0" encoding="utf-8"?>
<!-- UCLA Generated: Adobe Illustrator export SVG version1.1 - IDs removed, inline styles added, classes chagend, titles added. DCP Reviewed -->
<svg width="48px" height="48px" version="1.1" xmlns="http://www.w3.org/2000/svg" xmlns:xlink="http://www.w3.org/1999/xlink" x="0px" y="0px" viewBox="0 0 48 48" style="enable-background:new 0 0 48 48;" xml:space="preserve">
        <title>Clear</title>
        <style type="text/css">
            .clear--white {
                fill: #fff;
            }
        </style>
        <path class="clear--white" d="M24,4c11,0,20,9,20,20s-9,20-20,20S4,35,4,24S13,4,24,4z M31.1,14.1L24,21.2l-7.1-7.1l-2.8,2.8l7.1,7.1
  	l-7.1,7.1l2.8,2.8l7.1-7.1l7.1,7.1l2.8-2.8L26.8,24l7.1-7.1L31.1,14.1L31.1,14.1z" />
    </svg>
