<?xml version="1.0" encoding="utf-8"?>
<!-- UCLA Generated: Adobe Illustrator export SVG version1.1 - IDs removed, inline styles added, classes chagend, titles added. DCP Reviewed -->
<svg width="48px" height="48px" version="1.1" xmlns="http://www.w3.org/2000/svg" xmlns:xlink="http://www.w3.org/1999/xlink" x="0px" y="0px" viewBox="0 0 48 48" style="enable-background:new 0 0 48 48;" xml:space="preserve">
    <title>Close</title>
    <style type="text/css">
        .close--blue {
            fill-rule: evenodd;
            clip-rule: evenodd;
            fill: #00598C;
        }
    </style>
    <path class="close--blue" d="M38,12.8L35.2,10L24,21.2L12.8,10L10,12.8L21.2,24L10,35.2l2.8,2.8L24,26.8L35.2,38l2.8-2.8L26.8,24L38,12.8z" />
</svg>
