<?xml version="1.0" encoding="utf-8"?>
<!-- UCLA Generated: Adobe Illustrator export SVG version1.1 - IDs removed, inline styles added, classes chagend, titles added. DCP Reviewed -->
<svg width="48px" height="48px" version="1.1" xmlns="http://www.w3.org/2000/svg" xmlns:xlink="http://www.w3.org/1999/xlink" x="0px" y="0px"
	 viewBox="0 0 48 48" style="enable-background:new 0 0 48 48;" xml:space="preserve">
  <title>External Link</title>
  <style type="text/css">
  	.external-link--defualtblue {
      fill-rule: evenodd;
      clip-rule: evenodd;
      fill: #00598C;
    }
  </style>
  <g>
  	<path class="external-link--defualtblue" d="M35.7,39H9V12.3h15v-5H9c-2.7,0-5,2.3-5,5V39c0,2.7,2.3,5,5,5h26.7c2.7,0,5-2.3,5-5V24h-5V39z M26.7,4v5h9
  		l-22,22l3.7,3.7l22-22v9H44V4H26.7z"/>
  </g>
</svg>
