<?xml version="1.0" encoding="utf-8"?>
<!-- UCLA Generated: Adobe Illustrator export SVG version1.1 - IDs removed, inline styles added, classes chagend, titles added. DCP Reviewed -->
<svg width="48px" height="48px" version="1.1" xmlns="http://www.w3.org/2000/svg" xmlns:xlink="http://www.w3.org/1999/xlink" x="0px" y="0px"
viewBox="0 0 48 48" style="enable-background:new 0 0 48 48;" xml:space="preserve">
  <title>Warning</title>
  <style type="text/css">
    .warning--orange {
      fill-rule: evenodd;
      clip-rule: evenodd;
      fill: #F57F17;
    }
  </style>
  <g>
    <path class="warning--orange" d="M24,0l22,38H2L24,0z M26,28h-4v4h4V28z M26,16h-4v8h4V16z"/>
  </g>
</svg>
