<?xml version="1.0" encoding="utf-8"?>
<!-- UCLA Generated: Adobe Illustrator export SVG version1.1 - IDs removed, inline styles added, classes chagend, titles added. DCP Reviewed -->
<svg width="48px" height="48px" version="1.1" xmlns="http://www.w3.org/2000/svg" xmlns:xlink="http://www.w3.org/1999/xlink" x="0px" y="0px" viewBox="0 0 48 48" style="enable-background:new 0 0 48 48;" xml:space="preserve">
    <title>New Window</title>
    <style type="text/css">
        .new-window--white {
            fill-rule: evenodd;
            clip-rule: evenodd;
            fill: #fff;
        }
    </style>
    <path class="new-window--white" d="M31,38H10V17h7v-7h21v21h-7V38z M34.5,13.5h-14v14h14V13.5z M17,31V20.5h-3.5v14h14V31H17z" />
</svg>
