<?xml version="1.0" encoding="utf-8"?>
<!-- UCLA Generated: Adobe Illustrator export SVG version1.1 - IDs removed, inline styles added, classes chagend, titles added. DCP Reviewed -->
<svg width="48px" height="48px" version="1.1" xmlns="http://www.w3.org/2000/svg" xmlns:xlink="http://www.w3.org/1999/xlink" x="0px" y="0px" viewBox="0 0 24 24" style="enable-background:new 0 0 24 24;" xml:space="preserve">
    <title>Sort Ascending</title>
    <style type="text/css">
        .ascending-1 {
            fill: #666666;
        }

        .ascending-2 {
            fill-rule: evenodd;
            clip-rule: evenodd;
        }
    </style>
    <g>
        <g transform="translate(8.000000, 6.000000)">
            <polygon class="ascending-1" points="0,6 4,10 8,6 		" />
            <polygon class="ascending-2" points="8,4 4,0 0,4 		" />
        </g>
    </g>
</svg>
