<?xml version="1.0" encoding="utf-8"?>
<!-- UCLA Generated: Adobe Illustrator export SVG version1.1 - IDs removed, inline styles added, classes chagend, titles added. DCP Reviewed -->
<svg width="48px" height="48px" version="1.1" xmlns="http://www.w3.org/2000/svg" xmlns:xlink="http://www.w3.org/1999/xlink" x="0px" y="0px" viewBox="0 0 24 24" style="enable-background:new 0 0 24 24;" xml:space="preserve">
    <title>Arrow Up</title>
    <style type="text/css">
        .arrow-up--black {
            fill-rule: evenodd;
            clip-rule: evenodd;
            fill: #000;
        }
    </style>
    <g>
        <polygon class="arrow-up--black" points="16.6,16 12,11.4 7.4,16 6,14.6 12,8.6 18,14.6 	" />
    </g>
</svg>
