<?xml version="1.0" encoding="utf-8"?>
<!-- UCLA Generated: Adobe Illustrator export SVG version1.1 - IDs removed, inline styles added, classes chagend, titles added. DCP Reviewed -->
<svg width="48px" height="48px" version="1.1" xmlns="http://www.w3.org/2000/svg" xmlns:xlink="http://www.w3.org/1999/xlink" x="0px" y="0px" viewBox="0 0 48 48" enable-background="new 0 0 48 48" xml:space="preserve">
  <title>Partly Sunny</title>
    <g>
        <path fill-rule="evenodd" clip-rule="evenodd" fill="#FFFFFF" d="M4,26.7c0,0.5,0.2,0.8,0.5,1.2s0.7,0.5,1.2,0.5h2.9
	c0.5,0,0.8-0.2,1.2-0.5c0.3-0.3,0.5-0.7,0.5-1.2c0-0.5-0.2-0.8-0.5-1.2C9.4,25.2,9,25,8.5,25H5.7c-0.5,0-0.8,0.2-1.2,0.5
	S4,26.2,4,26.7z M7,37.1c0,1.7,0.5,3,1.8,4.2c1.2,1.2,2.5,1.8,4.2,1.8h11.6c1.7,0,3-0.7,4.2-1.7c1.2-1.2,1.7-2.5,1.7-4.2
	c0-0.8-0.2-1.5-0.3-2c1.3-0.8,2.5-2,3.4-3.5c0.8-1.5,1.2-3,1.2-4.7c0-1.3-0.3-2.7-0.8-3.9c-0.5-1.2-1.3-2.4-2.2-3.2
	c-0.8-0.8-2-1.7-3.2-2.2s-2.5-0.8-3.9-0.8c-1.8,0-3.5,0.5-5,1.3c-1.5,0.8-2.7,2.2-3.7,3.7c-0.8,1.5-1.3,3.2-1.3,5v0.5
	c-1.7,1-2.9,2.4-3.4,4.2c-1.3,0.3-2.4,1.2-3,2.2C7.4,34.6,7,35.7,7,37.1z M9.5,13.2c0,0.5,0.2,0.8,0.5,1.2l2.7,2.9
	c0.8,0.7,1.5,0.7,2.4,0c0.3-0.3,0.5-0.7,0.5-1.2s-0.2-0.8-0.5-1.2l-2.7-2.7c-0.5-0.3-0.8-0.5-1.3-0.5s-0.8,0.2-1.2,0.5
	C9.5,12.6,9.5,12.9,9.5,13.2z M10.2,37.1c0-0.7,0.2-1.3,0.7-1.8c0.5-0.5,1-0.8,1.7-0.8l1-0.2c0.2,0,0.3-0.2,0.3-0.3l0.2-1
	c0.2-1,0.5-1.8,1.2-2.4c0.7-0.7,1.5-1,2.5-1c1,0,1.8,0.3,2.5,1c0.7,0.7,1.2,1.5,1.3,2.4l0.2,1c0.2,0.5,0.3,0.5,0.5,0.5h2.2
	c0.7,0,1.3,0.3,1.8,0.8c0.5,0.5,0.8,1.2,0.8,1.8c0,0.8-0.3,1.3-0.8,1.8c-0.5,0.5-1.2,0.8-1.8,0.8H12.9c-0.7,0-1.3-0.3-1.8-0.8
	C10.6,38.6,10.2,37.9,10.2,37.1z M17.8,26.3c0.2-1.8,0.8-3.4,2.2-4.7c1.3-1.2,2.9-1.8,4.7-1.8c1.8,0,3.5,0.7,4.7,2
	c1.3,1.3,2,3,2,4.9c0,1.2-0.3,2.4-0.8,3.2c-0.5,1-1.3,1.8-2.4,2.5c-1-0.8-2.2-1.2-3.4-1.2c-0.5-1.5-1.3-2.7-2.5-3.5
	c-1.2-0.8-2.7-1.3-4.2-1.3C17.9,26.3,17.8,26.3,17.8,26.3z M23,11.7c0,0.5,0.2,0.8,0.5,1.2c0.3,0.3,0.7,0.5,1.2,0.5
	c0.5,0,0.8-0.2,1.2-0.5c0.3-0.3,0.5-0.7,0.5-1.2v-4c0-0.5-0.2-0.8-0.5-1.2S25.2,6,24.7,6c-0.5,0-0.8,0.2-1.2,0.5S23,7.2,23,7.7
	V11.7z M33.6,37.3c0,0.5,0.2,0.8,0.5,1.2l2.7,2.7c0.7,0.7,1.5,0.7,2.4,0c0.3-0.3,0.5-0.7,0.5-1.2c0-0.5-0.2-0.8-0.5-1.2l-2.9-2.7
	c-0.3-0.3-0.7-0.3-1.2-0.3c-0.5,0-0.8,0.2-1.2,0.5C33.7,36.4,33.6,36.8,33.6,37.3z M33.6,16.1c0,0.5,0.2,0.8,0.5,1.2
	c0.3,0.3,0.7,0.5,1.2,0.5c0.5,0,0.8-0.2,1.2-0.5l2.7-2.9c0.3-0.3,0.5-0.7,0.5-1.2s-0.2-0.8-0.5-1c-0.3-0.2-0.7-0.5-1.2-0.5
	c-0.5,0-0.8,0.2-1.2,0.5l-2.7,2.7C33.7,15.2,33.6,15.6,33.6,16.1z M37.8,26.7c0,0.5,0.2,0.8,0.5,1.2c0.3,0.3,0.7,0.5,1.2,0.5h2.9
	c0.5,0,0.8-0.2,1.2-0.5c0.3-0.3,0.5-0.7,0.5-1.2c0-0.5-0.2-0.8-0.5-1.2c-0.3-0.3-0.7-0.5-1.2-0.5h-2.9c-0.5,0-0.8,0.2-1.2,0.5
	C38.1,25.8,37.8,26.2,37.8,26.7z" />
    </g>
</svg>
